{
	"roots": [
		"<rootDir>/src",
		"<rootDir>/tests"
	],
	"resolver": "<rootDir>/tests/jest-resolver.js",
	"testEnvironment": "node",
	"testMatch": [
		"**/tests/**/*.test.js"
	],
	"moduleFileExtensions": [
		"js"
	]
}
